…
``` r
diamonds
```

    ## # A tibble: 53,940 x 10
    ##    carat cut       color clarity depth table price     x     y     z
    ##    <dbl> <ord>     <ord> <ord>   <dbl> <dbl> <int> <dbl> <dbl> <dbl>
    ##  1 0.23  Ideal     E     SI2      61.5    55   326  3.95  3.98  2.43
    ##  2 0.21  Premium   E     SI1      59.8    61   326  3.89  3.84  2.31
    ##  3 0.23  Good      E     VS1      56.9    65   327  4.05  4.07  2.31
    ##  4 0.290 Premium   I     VS2      62.4    58   334  4.2   4.23  2.63
    ##  5 0.31  Good      J     SI2      63.3    58   335  4.34  4.35  2.75
    ##  6 0.24  Very Good J     VVS2     62.8    57   336  3.94  3.96  2.48
    ##  7 0.24  Very Good I     VVS1     62.3    57   336  3.95  3.98  2.47
    ##  8 0.26  Very Good H     SI1      61.9    55   337  4.07  4.11  2.53
    ##  9 0.22  Fair      E     VS2      65.1    61   337  3.87  3.78  2.49
    ## 10 0.23  Very Good H     VS1      59.4    61   338  4     4.05  2.39
    ## # … with 53,930 more rows
…
Often you want to focus on a certain subset of your dataset. For
example, when analyzing the diamonds dataset, you may only want to study
a particular cut of diamond. The Filter function allows us to take out
just the subset of observations that we want. Here is an example of how
to do just that. This code can be read in plain English “Hey computer,
give me information on only the diamonds that have an Ideal cut. While
you are at it, name the new data frame, ‘Ideals.’”

``` r
ideals <- diamonds %>%
         filter(cut == "Ideal")
ideals
```

    ## # A tibble: 21,551 x 10
    ##    carat cut   color clarity depth table price     x     y     z
    ##    <dbl> <ord> <ord> <ord>   <dbl> <dbl> <int> <dbl> <dbl> <dbl>
    ##  1  0.23 Ideal E     SI2      61.5    55   326  3.95  3.98  2.43
    ##  2  0.23 Ideal J     VS1      62.8    56   340  3.93  3.9   2.46
    ##  3  0.31 Ideal J     SI2      62.2    54   344  4.35  4.37  2.71
    ##  4  0.3  Ideal I     SI2      62      54   348  4.31  4.34  2.68
    ##  5  0.33 Ideal I     SI2      61.8    55   403  4.49  4.51  2.78
    ##  6  0.33 Ideal I     SI2      61.2    56   403  4.49  4.5   2.75
    ##  7  0.33 Ideal J     SI1      61.1    56   403  4.49  4.55  2.76
    ##  8  0.23 Ideal G     VS1      61.9    54   404  3.93  3.95  2.44
    ##  9  0.32 Ideal I     SI1      60.9    55   404  4.45  4.48  2.72
    ## 10  0.3  Ideal I     SI2      61      59   405  4.3   4.33  2.63
    ## # … with 21,541 more rows
…
## Mutate

You may also want to create new variables. Using the diamonds dataset,
we may wish to study the question, “What is the distribution of price
per carat?” (Carat is the units for measuring the size of a diamond.)
When looking at the diamonds data frame, you can see it does not include
price per carat. Therefore, we will use the mutate function to add it.

``` r
diamonds_with_ppc <- diamonds %>%
                      mutate(ppc = price/carat)
diamonds_with_ppc
```

    ## # A tibble: 53,940 x 11
    ##    carat cut       color clarity depth table price     x     y     z   ppc
    ##    <dbl> <ord>     <ord> <ord>   <dbl> <dbl> <int> <dbl> <dbl> <dbl> <dbl>
    ##  1 0.23  Ideal     E     SI2      61.5    55   326  3.95  3.98  2.43 1417.
    ##  2 0.21  Premium   E     SI1      59.8    61   326  3.89  3.84  2.31 1552.
    ##  3 0.23  Good      E     VS1      56.9    65   327  4.05  4.07  2.31 1422.
    ##  4 0.290 Premium   I     VS2      62.4    58   334  4.2   4.23  2.63 1152.
    ##  5 0.31  Good      J     SI2      63.3    58   335  4.34  4.35  2.75 1081.
    ##  6 0.24  Very Good J     VVS2     62.8    57   336  3.94  3.96  2.48 1400 
    ##  7 0.24  Very Good I     VVS1     62.3    57   336  3.95  3.98  2.47 1400 
    ##  8 0.26  Very Good H     SI1      61.9    55   337  4.07  4.11  2.53 1296.
    ##  9 0.22  Fair      E     VS2      65.1    61   337  3.87  3.78  2.49 1532.
    ## 10 0.23  Very Good H     VS1      59.4    61   338  4     4.05  2.39 1470.
    ## # … with 53,930 more rows
…
