…
s_mean_5_x_200 <- data_frame(sampling_means_5salaries)
```

    ## Warning: `data_frame()` is deprecated as of tibble 1.1.0.
    ## Please use `tibble()` instead.
    ## This warning is displayed once every 8 hours.
    ## Call `lifecycle::last_warnings()` to see where this warning was generated.

``` r
s_mean_5_x_200
```

    ## # A tibble: 200 x 1
    ##    sampling_means_5salaries
    ##                       <dbl>
    ##  1                    10.7 
    ##  2                     9.94
    ##  3                     3.15
    ##  4                     7.93
    ##  5                     3.76
    ##  6                     6.76
    ##  7                     1.91
    ##  8                     1.73
    ##  9                     1.97
    ## 10                     1.16
    ## # … with 190 more rows
…
For our second simulation, you will use a sample size of 10. That means
we take a sample of 10 salaries, calculate the mean of those 10, and
then repeat that process 200 times.

``` r
sampling_means_10salaries <- replicate(200,{ 
 salary_choice10 <- sample(mlb$salary, 10, 
          replace = FALSE)
  mean(salary_choice10)})

s_mean_10_x_200 <- data_frame(sampling_means_10salaries)
s_mean_10_x_200
```

    ## # A tibble: 200 x 1
    ##    sampling_means_10salaries
    ##                        <dbl>
    ##  1                      9.85
    ##  2                      3.48
    ##  3                      6.2 
    ##  4                      6.99
    ##  5                      4.48
    ##  6                      3.32
    ##  7                      8.14
    ##  8                      3.10
    ##  9                      2.21
    ## 10                      7.68
    ## # … with 190 more rows
…
